{
  "configuration": {
    "name": "Log4j2_Config",
    "packages": "com",
    "properties": {
      "property": {
        "name": "log-path",
        "value": "logs"
      }
    },
    "appenders": {
      "Console": {
        "name": "consoleDebug",
        "PatternLayout": {
          "pattern": "%highlight{%msg} %xEx{short}%n"
        }
      }
    },
    "loggers": {
      "root": {
        "level": "all"
      },
      "logger": {
        "name": "com",
        "level": "all",
        "AppenderRef": {
          "ref": "consoleDebug"
        }
      }
    }

  }
}